<?xml version="1.0" encoding="utf-8"?>
<!-- Generator: Adobe Illustrator 19.1.0, SVG Export Plug-In . SVG Version: 6.00 Build 0)  -->
<svg version="1.1" id="Layer_1" xmlns="http://www.w3.org/2000/svg" xmlns:xlink="http://www.w3.org/1999/xlink" x="0px" y="0px"
	 viewBox="0 0 250.7 51.5" style="enable-background:new 0 0 250.7 51.5;" xml:space="preserve">
<style type="text/css">
	.st0{fill:#FFFFFF;}
</style>
<g>
	<path class="st0" d="M7.8,22.2c1-1.2,2.1-2.2,3.1-2.8c1.1-0.6,2.2-0.9,3.4-0.9c1.4,0,2.5,0.3,3.3,0.9c0.8,0.6,1.3,1.5,1.6,2.8h0.2
		c1-1.2,2.1-2.2,3.1-2.8c1.1-0.6,2.2-0.9,3.4-0.9c1.6,0,2.8,0.5,3.7,1.4s1.4,2.2,1.4,3.8v11.1h2.6v1.6h-8.7v-1.6h2.6V24.3
		c0-1.1-0.2-2-0.6-2.5c-0.4-0.6-1.1-0.8-1.9-0.8c-0.9,0-1.8,0.2-2.7,0.7c-0.9,0.5-1.9,1.2-2.9,2.1v11.1h2.6v1.6h-8.7v-1.6H16V24.3
		c0-1.1-0.2-2-0.6-2.5c-0.4-0.6-1.1-0.8-1.9-0.8c-0.9,0-1.8,0.2-2.7,0.7c-0.9,0.5-1.9,1.2-2.9,2.1v11.1h2.6v1.6H1.7v-1.6h2.6V20.5
		H1.7v-1.6h6.1V22.2z"/>
	<path class="st0" d="M44.4,36.4l-7.2-15.9h-1.5v-1.6h7.9v1.6H41l5.4,11.9l5.8-11.9h-2.6v-1.6h6v1.6h-1.5l-7.8,16.1l-3,6.2h-4.1
		L44.4,36.4z"/>
	<path class="st0" d="M59.9,35.8v-6.2h2.7l0.3,3.3c1.3,0.8,2.5,1.3,3.6,1.7c1.1,0.4,2.1,0.6,3,0.6c2,0,3.6-0.6,4.9-1.7
		c1.3-1.1,2-2.5,2-4.3c0-1.5-0.4-2.7-1.2-3.7c-0.8-1-2.3-2.1-4.4-3.1L68.3,21c-3-1.5-5.1-3-6.3-4.4c-1.2-1.4-1.8-3-1.8-4.8
		c0-2.5,1-4.6,2.9-6.2c1.9-1.6,4.4-2.5,7.3-2.5c1.6,0,3.2,0.1,4.7,0.3s3.1,0.6,4.5,1v5.7h-2.7L76.8,7c-1-0.6-2.1-1-3.1-1.3
		s-2-0.4-3-0.4c-1.5,0-2.8,0.5-3.9,1.6c-1.1,1.1-1.6,2.4-1.6,3.9c0,2.3,1.6,4.2,4.8,5.9l2.5,1.3c3.5,1.8,5.8,3.4,7,4.7
		c1.2,1.3,1.8,3,1.8,5.1c0,2.7-1.1,5-3.3,6.8c-2.2,1.8-4.9,2.7-8.2,2.7c-1.9,0-3.7-0.1-5.4-0.4S61.3,36.2,59.9,35.8z"/>
	<path class="st0" d="M96.4,10.4h-8.8v3.3h-2.3V8.2h26.6v5.4h-2.3v-3.3h-8.8v24.2h3.1v1.9H93.3v-1.9h3.1V10.4z"/>
	<path class="st0" d="M136.2,36.4h-21.1v-1.9h3.1V10.1h-3.1V8.2h20.2v4.7H133v-2.8h-10.5v10.8h7.4v-2.4h2v6.6h-2v-2.4h-7.4v11.5
		h11.4v-3h2.3V36.4z"/>
	<path class="st0" d="M151.5,36.8l-11.2-26.7h-1.8V8.2h9.5v1.9H145l8.6,20.5l8.2-20.5h-3.1V8.2h7.3v1.9h-1.8l-10.7,26.7H151.5z"/>
	<path class="st0" d="M190,36.4h-21.1v-1.9h3.1V10.1h-3.1V8.2h20.2v4.7h-2.3v-2.8h-10.5v10.8h7.4v-2.4h2v6.6h-2v-2.4h-7.4v11.5h11.4
		v-3h2.3V36.4z"/>
	<path class="st0" d="M215.1,36.8l-16-22.8v20.5h3.1v1.9h-8.9v-1.9h3.1V10.1h-3.1V8.2h6.4L215.9,31V10.1h-3.1V8.2h8.9v1.9h-3.1v26.7
		H215.1z"/>
	<path class="st0" d="M226.2,35.8v-5.4h2.3l0.2,2.8c1.1,0.7,2.2,1.2,3.2,1.5c1,0.3,1.8,0.5,2.6,0.5c1.7,0,3.2-0.5,4.3-1.5
		c1.1-1,1.7-2.2,1.7-3.7c0-1.3-0.4-2.3-1.1-3.2c-0.7-0.9-2-1.8-3.8-2.7l-2.2-1.1c-2.6-1.3-4.4-2.6-5.4-3.8c-1.1-1.2-1.6-2.6-1.6-4.2
		c0-2.2,0.8-4,2.5-5.4c1.7-1.4,3.8-2.1,6.3-2.1c1.4,0,2.8,0.1,4.1,0.3s2.6,0.5,3.9,0.9v5h-2.3l-0.2-2.7c-0.9-0.5-1.8-0.9-2.7-1.2
		c-0.9-0.3-1.7-0.4-2.6-0.4c-1.3,0-2.4,0.5-3.3,1.4c-0.9,0.9-1.4,2.1-1.4,3.4c0,2,1.4,3.7,4.2,5.1l2.2,1.1c3,1.6,5,2.9,6.1,4.1
		c1,1.2,1.6,2.6,1.6,4.4c0,2.3-1,4.3-2.8,5.9c-1.9,1.6-4.3,2.3-7.1,2.3c-1.7,0-3.2-0.1-4.7-0.3C228.8,36.6,227.5,36.3,226.2,35.8z"
		/>
</g>
<g>
	<path class="st0" d="M221.4,48.1v-8.5h1.1v3.7c0.5-0.8,1.1-1.2,1.9-1.2c0.7,0,1.2,0.3,1.6,0.8c0.4,0.5,0.6,1.2,0.6,2.1
		c0,1-0.2,1.7-0.7,2.3s-1,0.9-1.8,0.9c-0.6,0-1.2-0.3-1.6-0.8l-0.3,0.7H221.4z M222.4,46.6c0.5,0.5,1,0.8,1.5,0.8
		c0.5,0,0.8-0.2,1.1-0.6s0.4-1,0.4-1.7c0-1.4-0.4-2.1-1.2-2.1c-0.6,0-1.2,0.4-1.7,1.1V46.6z"/>
	<path class="st0" d="M233,47.8c-0.7,0.2-1.4,0.4-2,0.4c-1,0-1.8-0.3-2.3-0.8s-0.8-1.3-0.8-2.2c0-0.9,0.3-1.7,0.8-2.2
		c0.5-0.6,1.2-0.9,2-0.9c0.8,0,1.4,0.2,1.8,0.7c0.4,0.5,0.6,1.2,0.6,2.3v0.3h-4c0.1,1.3,0.8,2,2.1,2c0.6,0,1.2-0.1,1.9-0.4V47.8z
		 M229,44.6h2.8v-0.2c0-1.1-0.4-1.6-1.3-1.6c-0.4,0-0.8,0.2-1,0.5C229.2,43.6,229.1,44,229,44.6z"/>
	<path class="st0" d="M239.6,48c-0.5,0.1-1,0.1-1.5,0.1c-0.9,0-1.5-0.2-1.8-0.5s-0.5-0.9-0.5-1.8v-2.8h-1.5v-0.8h1.5v-1.3h1.1v1.3
		h2.6v0.8h-2.6v3c0,0.3,0,0.6,0.1,0.7c0,0.1,0.1,0.2,0.3,0.3c0.2,0.2,0.6,0.2,1.1,0.2c0.4,0,0.9-0.1,1.3-0.2V48z"/>
	<path class="st0" d="M244.8,47.3c-0.6,0.5-1.3,0.8-1.9,0.8c-0.5,0-1-0.2-1.3-0.5s-0.5-0.7-0.5-1.2c0-0.6,0.3-1.1,0.8-1.5
		c0.5-0.4,1.2-0.6,2.1-0.6h0.7V44c0-0.4-0.1-0.7-0.3-0.9c-0.2-0.2-0.5-0.3-0.9-0.3c-0.6,0-1.2,0.2-1.9,0.5v-0.9
		c0.8-0.3,1.5-0.4,2.1-0.4c0.7,0,1.3,0.1,1.6,0.4s0.5,0.8,0.5,1.5v2.4c0,0.4,0,0.6,0.1,0.7s0.2,0.2,0.4,0.2c0.1,0,0.2,0,0.3-0.1
		l0.1,0.6c-0.4,0.1-0.6,0.2-0.8,0.2C245.4,48.1,245,47.9,244.8,47.3z M244.7,46.6v-1.5h-0.3c-1.5,0-2.2,0.4-2.2,1.2
		c0,0.3,0.1,0.5,0.3,0.7s0.4,0.3,0.7,0.3C243.7,47.3,244.1,47.1,244.7,46.6z"/>
</g>
</svg>
